('C:\\Users\\seong\\Desktop\\Web_Crawling\\build\\main\\PYZ-00.pyz',
 [('ssl',
   'C:\\Users\\seong\\AppData\\Local\\Programs\\Python\\Python38\\lib\\ssl.py',
   'PYMODULE'),
  ('calendar',
   'C:\\Users\\seong\\AppData\\Local\\Programs\\Python\\Python38\\lib\\calendar.py',
   'PYMODULE'),
  ('argparse',
   'C:\\Users\\seong\\AppData\\Local\\Programs\\Python\\Python38\\lib\\argparse.py',
   'PYMODULE'),
  ('textwrap',
   'C:\\Users\\seong\\AppData\\Local\\Programs\\Python\\Python38\\lib\\textwrap.py',
   'PYMODULE'),
  ('copy',
   'C:\\Users\\seong\\AppData\\Local\\Programs\\Python\\Python38\\lib\\copy.py',
   'PYMODULE'),
  ('gettext',
   'C:\\Users\\seong\\AppData\\Local\\Programs\\Python\\Python38\\lib\\gettext.py',
   'PYMODULE'),
  ('struct',
   'C:\\Users\\seong\\AppData\\Local\\Programs\\Python\\Python38\\lib\\struct.py',
   'PYMODULE'),
  ('datetime',
   'C:\\Users\\seong\\AppData\\Local\\Programs\\Python\\Python38\\lib\\datetime.py',
   'PYMODULE'),
  ('_strptime',
   'C:\\Users\\seong\\AppData\\Local\\Programs\\Python\\Python38\\lib\\_strptime.py',
   'PYMODULE'),
  ('socket',
   'C:\\Users\\seong\\AppData\\Local\\Programs\\Python\\Python38\\lib\\socket.py',
   'PYMODULE'),
  ('selectors',
   'C:\\Users\\seong\\AppData\\Local\\Programs\\Python\\Python38\\lib\\selectors.py',
   'PYMODULE'),
  ('multiprocessing.popen_spawn_posix',
   'C:\\Users\\seong\\AppData\\Local\\Programs\\Python\\Python38\\lib\\multiprocessing\\popen_spawn_posix.py',
   'PYMODULE'),
  ('multiprocessing.resource_tracker',
   'C:\\Users\\seong\\AppData\\Local\\Programs\\Python\\Python38\\lib\\multiprocessing\\resource_tracker.py',
   'PYMODULE'),
  ('threading',
   'C:\\Users\\seong\\AppData\\Local\\Programs\\Python\\Python38\\lib\\threading.py',
   'PYMODULE'),
  ('_threading_local',
   'C:\\Users\\seong\\AppData\\Local\\Programs\\Python\\Python38\\lib\\_threading_local.py',
   'PYMODULE'),
  ('contextlib',
   'C:\\Users\\seong\\AppData\\Local\\Programs\\Python\\Python38\\lib\\contextlib.py',
   'PYMODULE'),
  ('signal',
   'C:\\Users\\seong\\AppData\\Local\\Programs\\Python\\Python38\\lib\\signal.py',
   'PYMODULE'),
  ('multiprocessing.util',
   'C:\\Users\\seong\\AppData\\Local\\Programs\\Python\\Python38\\lib\\multiprocessing\\util.py',
   'PYMODULE'),
  ('multiprocessing.forkserver',
   'C:\\Users\\seong\\AppData\\Local\\Programs\\Python\\Python38\\lib\\multiprocessing\\forkserver.py',
   'PYMODULE'),
  ('multiprocessing.connection',
   'C:\\Users\\seong\\AppData\\Local\\Programs\\Python\\Python38\\lib\\multiprocessing\\connection.py',
   'PYMODULE'),
  ('multiprocessing.resource_sharer',
   'C:\\Users\\seong\\AppData\\Local\\Programs\\Python\\Python38\\lib\\multiprocessing\\resource_sharer.py',
   'PYMODULE'),
  ('xmlrpc.client',
   'C:\\Users\\seong\\AppData\\Local\\Programs\\Python\\Python38\\lib\\xmlrpc\\client.py',
   'PYMODULE'),
  ('xmlrpc',
   'C:\\Users\\seong\\AppData\\Local\\Programs\\Python\\Python38\\lib\\xmlrpc\\__init__.py',
   'PYMODULE'),
  ('gzip',
   'C:\\Users\\seong\\AppData\\Local\\Programs\\Python\\Python38\\lib\\gzip.py',
   'PYMODULE'),
  ('_compression',
   'C:\\Users\\seong\\AppData\\Local\\Programs\\Python\\Python38\\lib\\_compression.py',
   'PYMODULE'),
  ('xml.parsers.expat',
   'C:\\Users\\seong\\AppData\\Local\\Programs\\Python\\Python38\\lib\\xml\\parsers\\expat.py',
   'PYMODULE'),
  ('xml.parsers',
   'C:\\Users\\seong\\AppData\\Local\\Programs\\Python\\Python38\\lib\\xml\\parsers\\__init__.py',
   'PYMODULE'),
  ('xml',
   'C:\\Users\\seong\\AppData\\Local\\Programs\\Python\\Python38\\lib\\xml\\__init__.py',
   'PYMODULE'),
  ('xml.sax.expatreader',
   'C:\\Users\\seong\\AppData\\Local\\Programs\\Python\\Python38\\lib\\xml\\sax\\expatreader.py',
   'PYMODULE'),
  ('xml.sax.saxutils',
   'C:\\Users\\seong\\AppData\\Local\\Programs\\Python\\Python38\\lib\\xml\\sax\\saxutils.py',
   'PYMODULE'),
  ('urllib.request',
   'C:\\Users\\seong\\AppData\\Local\\Programs\\Python\\Python38\\lib\\urllib\\request.py',
   'PYMODULE'),
  ('fnmatch',
   'C:\\Users\\seong\\AppData\\Local\\Programs\\Python\\Python38\\lib\\fnmatch.py',
   'PYMODULE'),
  ('getpass',
   'C:\\Users\\seong\\AppData\\Local\\Programs\\Python\\Python38\\lib\\getpass.py',
   'PYMODULE'),
  ('nturl2path',
   'C:\\Users\\seong\\AppData\\Local\\Programs\\Python\\Python38\\lib\\nturl2path.py',
   'PYMODULE'),
  ('ftplib',
   'C:\\Users\\seong\\AppData\\Local\\Programs\\Python\\Python38\\lib\\ftplib.py',
   'PYMODULE'),
  ('netrc',
   'C:\\Users\\seong\\AppData\\Local\\Programs\\Python\\Python38\\lib\\netrc.py',
   'PYMODULE'),
  ('stat',
   'C:\\Users\\seong\\AppData\\Local\\Programs\\Python\\Python38\\lib\\stat.py',
   'PYMODULE'),
  ('shlex',
   'C:\\Users\\seong\\AppData\\Local\\Programs\\Python\\Python38\\lib\\shlex.py',
   'PYMODULE'),
  ('mimetypes',
   'C:\\Users\\seong\\AppData\\Local\\Programs\\Python\\Python38\\lib\\mimetypes.py',
   'PYMODULE'),
  ('getopt',
   'C:\\Users\\seong\\AppData\\Local\\Programs\\Python\\Python38\\lib\\getopt.py',
   'PYMODULE'),
  ('email.utils',
   'C:\\Users\\seong\\AppData\\Local\\Programs\\Python\\Python38\\lib\\email\\utils.py',
   'PYMODULE'),
  ('email.charset',
   'C:\\Users\\seong\\AppData\\Local\\Programs\\Python\\Python38\\lib\\email\\charset.py',
   'PYMODULE'),
  ('email.encoders',
   'C:\\Users\\seong\\AppData\\Local\\Programs\\Python\\Python38\\lib\\email\\encoders.py',
   'PYMODULE'),
  ('quopri',
   'C:\\Users\\seong\\AppData\\Local\\Programs\\Python\\Python38\\lib\\quopri.py',
   'PYMODULE'),
  ('email.errors',
   'C:\\Users\\seong\\AppData\\Local\\Programs\\Python\\Python38\\lib\\email\\errors.py',
   'PYMODULE'),
  ('email.quoprimime',
   'C:\\Users\\seong\\AppData\\Local\\Programs\\Python\\Python38\\lib\\email\\quoprimime.py',
   'PYMODULE'),
  ('email.base64mime',
   'C:\\Users\\seong\\AppData\\Local\\Programs\\Python\\Python38\\lib\\email\\base64mime.py',
   'PYMODULE'),
  ('email._parseaddr',
   'C:\\Users\\seong\\AppData\\Local\\Programs\\Python\\Python38\\lib\\email\\_parseaddr.py',
   'PYMODULE'),
  ('random',
   'C:\\Users\\seong\\AppData\\Local\\Programs\\Python\\Python38\\lib\\random.py',
   'PYMODULE'),
  ('http.cookiejar',
   'C:\\Users\\seong\\AppData\\Local\\Programs\\Python\\Python38\\lib\\http\\cookiejar.py',
   'PYMODULE'),
  ('http',
   'C:\\Users\\seong\\AppData\\Local\\Programs\\Python\\Python38\\lib\\http\\__init__.py',
   'PYMODULE'),
  ('urllib',
   'C:\\Users\\seong\\AppData\\Local\\Programs\\Python\\Python38\\lib\\urllib\\__init__.py',
   'PYMODULE'),
  ('urllib.response',
   'C:\\Users\\seong\\AppData\\Local\\Programs\\Python\\Python38\\lib\\urllib\\response.py',
   'PYMODULE'),
  ('urllib.error',
   'C:\\Users\\seong\\AppData\\Local\\Programs\\Python\\Python38\\lib\\urllib\\error.py',
   'PYMODULE'),
  ('string',
   'C:\\Users\\seong\\AppData\\Local\\Programs\\Python\\Python38\\lib\\string.py',
   'PYMODULE'),
  ('posixpath',
   'C:\\Users\\seong\\AppData\\Local\\Programs\\Python\\Python38\\lib\\posixpath.py',
   'PYMODULE'),
  ('genericpath',
   'C:\\Users\\seong\\AppData\\Local\\Programs\\Python\\Python38\\lib\\genericpath.py',
   'PYMODULE'),
  ('hashlib',
   'C:\\Users\\seong\\AppData\\Local\\Programs\\Python\\Python38\\lib\\hashlib.py',
   'PYMODULE'),
  ('email',
   'C:\\Users\\seong\\AppData\\Local\\Programs\\Python\\Python38\\lib\\email\\__init__.py',
   'PYMODULE'),
  ('email.parser',
   'C:\\Users\\seong\\AppData\\Local\\Programs\\Python\\Python38\\lib\\email\\parser.py',
   'PYMODULE'),
  ('email._policybase',
   'C:\\Users\\seong\\AppData\\Local\\Programs\\Python\\Python38\\lib\\email\\_policybase.py',
   'PYMODULE'),
  ('email.feedparser',
   'C:\\Users\\seong\\AppData\\Local\\Programs\\Python\\Python38\\lib\\email\\feedparser.py',
   'PYMODULE'),
  ('email.message',
   'C:\\Users\\seong\\AppData\\Local\\Programs\\Python\\Python38\\lib\\email\\message.py',
   'PYMODULE'),
  ('email.policy',
   'C:\\Users\\seong\\AppData\\Local\\Programs\\Python\\Python38\\lib\\email\\policy.py',
   'PYMODULE'),
  ('email.contentmanager',
   'C:\\Users\\seong\\AppData\\Local\\Programs\\Python\\Python38\\lib\\email\\contentmanager.py',
   'PYMODULE'),
  ('email.headerregistry',
   'C:\\Users\\seong\\AppData\\Local\\Programs\\Python\\Python38\\lib\\email\\headerregistry.py',
   'PYMODULE'),
  ('email.iterators',
   'C:\\Users\\seong\\AppData\\Local\\Programs\\Python\\Python38\\lib\\email\\iterators.py',
   'PYMODULE'),
  ('email.generator',
   'C:\\Users\\seong\\AppData\\Local\\Programs\\Python\\Python38\\lib\\email\\generator.py',
   'PYMODULE'),
  ('email._encoded_words',
   'C:\\Users\\seong\\AppData\\Local\\Programs\\Python\\Python38\\lib\\email\\_encoded_words.py',
   'PYMODULE'),
  ('uu',
   'C:\\Users\\seong\\AppData\\Local\\Programs\\Python\\Python38\\lib\\uu.py',
   'PYMODULE'),
  ('optparse',
   'C:\\Users\\seong\\AppData\\Local\\Programs\\Python\\Python38\\lib\\optparse.py',
   'PYMODULE'),
  ('email._header_value_parser',
   'C:\\Users\\seong\\AppData\\Local\\Programs\\Python\\Python38\\lib\\email\\_header_value_parser.py',
   'PYMODULE'),
  ('email.header',
   'C:\\Users\\seong\\AppData\\Local\\Programs\\Python\\Python38\\lib\\email\\header.py',
   'PYMODULE'),
  ('bisect',
   'C:\\Users\\seong\\AppData\\Local\\Programs\\Python\\Python38\\lib\\bisect.py',
   'PYMODULE'),
  ('xml.sax',
   'C:\\Users\\seong\\AppData\\Local\\Programs\\Python\\Python38\\lib\\xml\\sax\\__init__.py',
   'PYMODULE'),
  ('xml.sax.handler',
   'C:\\Users\\seong\\AppData\\Local\\Programs\\Python\\Python38\\lib\\xml\\sax\\handler.py',
   'PYMODULE'),
  ('xml.sax._exceptions',
   'C:\\Users\\seong\\AppData\\Local\\Programs\\Python\\Python38\\lib\\xml\\sax\\_exceptions.py',
   'PYMODULE'),
  ('xml.sax.xmlreader',
   'C:\\Users\\seong\\AppData\\Local\\Programs\\Python\\Python38\\lib\\xml\\sax\\xmlreader.py',
   'PYMODULE'),
  ('urllib.parse',
   'C:\\Users\\seong\\AppData\\Local\\Programs\\Python\\Python38\\lib\\urllib\\parse.py',
   'PYMODULE'),
  ('http.client',
   'C:\\Users\\seong\\AppData\\Local\\Programs\\Python\\Python38\\lib\\http\\client.py',
   'PYMODULE'),
  ('decimal',
   'C:\\Users\\seong\\AppData\\Local\\Programs\\Python\\Python38\\lib\\decimal.py',
   'PYMODULE'),
  ('_pydecimal',
   'C:\\Users\\seong\\AppData\\Local\\Programs\\Python\\Python38\\lib\\_pydecimal.py',
   'PYMODULE'),
  ('contextvars',
   'C:\\Users\\seong\\AppData\\Local\\Programs\\Python\\Python38\\lib\\contextvars.py',
   'PYMODULE'),
  ('numbers',
   'C:\\Users\\seong\\AppData\\Local\\Programs\\Python\\Python38\\lib\\numbers.py',
   'PYMODULE'),
  ('hmac',
   'C:\\Users\\seong\\AppData\\Local\\Programs\\Python\\Python38\\lib\\hmac.py',
   'PYMODULE'),
  ('tempfile',
   'C:\\Users\\seong\\AppData\\Local\\Programs\\Python\\Python38\\lib\\tempfile.py',
   'PYMODULE'),
  ('logging',
   'C:\\Users\\seong\\AppData\\Local\\Programs\\Python\\Python38\\lib\\logging\\__init__.py',
   'PYMODULE'),
  ('pickle',
   'C:\\Users\\seong\\AppData\\Local\\Programs\\Python\\Python38\\lib\\pickle.py',
   'PYMODULE'),
  ('pprint',
   'C:\\Users\\seong\\AppData\\Local\\Programs\\Python\\Python38\\lib\\pprint.py',
   'PYMODULE'),
  ('doctest',
   'C:\\Users\\seong\\AppData\\Local\\Programs\\Python\\Python38\\lib\\doctest.py',
   'PYMODULE'),
  ('unittest',
   'C:\\Users\\seong\\AppData\\Local\\Programs\\Python\\Python38\\lib\\unittest\\__init__.py',
   'PYMODULE'),
  ('ntpath',
   'C:\\Users\\seong\\AppData\\Local\\Programs\\Python\\Python38\\lib\\ntpath.py',
   'PYMODULE'),
  ('unittest.signals',
   'C:\\Users\\seong\\AppData\\Local\\Programs\\Python\\Python38\\lib\\unittest\\signals.py',
   'PYMODULE'),
  ('unittest.main',
   'C:\\Users\\seong\\AppData\\Local\\Programs\\Python\\Python38\\lib\\unittest\\main.py',
   'PYMODULE'),
  ('unittest.runner',
   'C:\\Users\\seong\\AppData\\Local\\Programs\\Python\\Python38\\lib\\unittest\\runner.py',
   'PYMODULE'),
  ('unittest.loader',
   'C:\\Users\\seong\\AppData\\Local\\Programs\\Python\\Python38\\lib\\unittest\\loader.py',
   'PYMODULE'),
  ('unittest.suite',
   'C:\\Users\\seong\\AppData\\Local\\Programs\\Python\\Python38\\lib\\unittest\\suite.py',
   'PYMODULE'),
  ('unittest.case',
   'C:\\Users\\seong\\AppData\\Local\\Programs\\Python\\Python38\\lib\\unittest\\case.py',
   'PYMODULE'),
  ('unittest.async_case',
   'C:\\Users\\seong\\AppData\\Local\\Programs\\Python\\Python38\\lib\\unittest\\async_case.py',
   'PYMODULE'),
  ('asyncio',
   'C:\\Users\\seong\\AppData\\Local\\Programs\\Python\\Python38\\lib\\asyncio\\__init__.py',
   'PYMODULE'),
  ('asyncio.unix_events',
   'C:\\Users\\seong\\AppData\\Local\\Programs\\Python\\Python38\\lib\\asyncio\\unix_events.py',
   'PYMODULE'),
  ('asyncio.log',
   'C:\\Users\\seong\\AppData\\Local\\Programs\\Python\\Python38\\lib\\asyncio\\log.py',
   'PYMODULE'),
  ('asyncio.windows_events',
   'C:\\Users\\seong\\AppData\\Local\\Programs\\Python\\Python38\\lib\\asyncio\\windows_events.py',
   'PYMODULE'),
  ('asyncio.windows_utils',
   'C:\\Users\\seong\\AppData\\Local\\Programs\\Python\\Python38\\lib\\asyncio\\windows_utils.py',
   'PYMODULE'),
  ('asyncio.selector_events',
   'C:\\Users\\seong\\AppData\\Local\\Programs\\Python\\Python38\\lib\\asyncio\\selector_events.py',
   'PYMODULE'),
  ('asyncio.proactor_events',
   'C:\\Users\\seong\\AppData\\Local\\Programs\\Python\\Python38\\lib\\asyncio\\proactor_events.py',
   'PYMODULE'),
  ('asyncio.base_subprocess',
   'C:\\Users\\seong\\AppData\\Local\\Programs\\Python\\Python38\\lib\\asyncio\\base_subprocess.py',
   'PYMODULE'),
  ('asyncio.subprocess',
   'C:\\Users\\seong\\AppData\\Local\\Programs\\Python\\Python38\\lib\\asyncio\\subprocess.py',
   'PYMODULE'),
  ('asyncio.streams',
   'C:\\Users\\seong\\AppData\\Local\\Programs\\Python\\Python38\\lib\\asyncio\\streams.py',
   'PYMODULE'),
  ('asyncio.queues',
   'C:\\Users\\seong\\AppData\\Local\\Programs\\Python\\Python38\\lib\\asyncio\\queues.py',
   'PYMODULE'),
  ('asyncio.runners',
   'C:\\Users\\seong\\AppData\\Local\\Programs\\Python\\Python38\\lib\\asyncio\\runners.py',
   'PYMODULE'),
  ('asyncio.events',
   'C:\\Users\\seong\\AppData\\Local\\Programs\\Python\\Python38\\lib\\asyncio\\events.py',
   'PYMODULE'),
  ('asyncio.trsock',
   'C:\\Users\\seong\\AppData\\Local\\Programs\\Python\\Python38\\lib\\asyncio\\trsock.py',
   'PYMODULE'),
  ('asyncio.staggered',
   'C:\\Users\\seong\\AppData\\Local\\Programs\\Python\\Python38\\lib\\asyncio\\staggered.py',
   'PYMODULE'),
  ('typing',
   'C:\\Users\\seong\\AppData\\Local\\Programs\\Python\\Python38\\lib\\typing.py',
   'PYMODULE'),
  ('asyncio.tasks',
   'C:\\Users\\seong\\AppData\\Local\\Programs\\Python\\Python38\\lib\\asyncio\\tasks.py',
   'PYMODULE'),
  ('concurrent.futures',
   'C:\\Users\\seong\\AppData\\Local\\Programs\\Python\\Python38\\lib\\concurrent\\futures\\__init__.py',
   'PYMODULE'),
  ('concurrent.futures.thread',
   'C:\\Users\\seong\\AppData\\Local\\Programs\\Python\\Python38\\lib\\concurrent\\futures\\thread.py',
   'PYMODULE'),
  ('queue',
   'C:\\Users\\seong\\AppData\\Local\\Programs\\Python\\Python38\\lib\\queue.py',
   'PYMODULE'),
  ('concurrent.futures.process',
   'C:\\Users\\seong\\AppData\\Local\\Programs\\Python\\Python38\\lib\\concurrent\\futures\\process.py',
   'PYMODULE'),
  ('multiprocessing.queues',
   'C:\\Users\\seong\\AppData\\Local\\Programs\\Python\\Python38\\lib\\multiprocessing\\queues.py',
   'PYMODULE'),
  ('multiprocessing.synchronize',
   'C:\\Users\\seong\\AppData\\Local\\Programs\\Python\\Python38\\lib\\multiprocessing\\synchronize.py',
   'PYMODULE'),
  ('multiprocessing.heap',
   'C:\\Users\\seong\\AppData\\Local\\Programs\\Python\\Python38\\lib\\multiprocessing\\heap.py',
   'PYMODULE'),
  ('concurrent.futures._base',
   'C:\\Users\\seong\\AppData\\Local\\Programs\\Python\\Python38\\lib\\concurrent\\futures\\_base.py',
   'PYMODULE'),
  ('concurrent',
   'C:\\Users\\seong\\AppData\\Local\\Programs\\Python\\Python38\\lib\\concurrent\\__init__.py',
   'PYMODULE'),
  ('asyncio.base_tasks',
   'C:\\Users\\seong\\AppData\\Local\\Programs\\Python\\Python38\\lib\\asyncio\\base_tasks.py',
   'PYMODULE'),
  ('asyncio.locks',
   'C:\\Users\\seong\\AppData\\Local\\Programs\\Python\\Python38\\lib\\asyncio\\locks.py',
   'PYMODULE'),
  ('asyncio.sslproto',
   'C:\\Users\\seong\\AppData\\Local\\Programs\\Python\\Python38\\lib\\asyncio\\sslproto.py',
   'PYMODULE'),
  ('asyncio.transports',
   'C:\\Users\\seong\\AppData\\Local\\Programs\\Python\\Python38\\lib\\asyncio\\transports.py',
   'PYMODULE'),
  ('asyncio.base_events',
   'C:\\Users\\seong\\AppData\\Local\\Programs\\Python\\Python38\\lib\\asyncio\\base_events.py',
   'PYMODULE'),
  ('asyncio.protocols',
   'C:\\Users\\seong\\AppData\\Local\\Programs\\Python\\Python38\\lib\\asyncio\\protocols.py',
   'PYMODULE'),
  ('asyncio.futures',
   'C:\\Users\\seong\\AppData\\Local\\Programs\\Python\\Python38\\lib\\asyncio\\futures.py',
   'PYMODULE'),
  ('asyncio.coroutines',
   'C:\\Users\\seong\\AppData\\Local\\Programs\\Python\\Python38\\lib\\asyncio\\coroutines.py',
   'PYMODULE'),
  ('asyncio.base_futures',
   'C:\\Users\\seong\\AppData\\Local\\Programs\\Python\\Python38\\lib\\asyncio\\base_futures.py',
   'PYMODULE'),
  ('asyncio.exceptions',
   'C:\\Users\\seong\\AppData\\Local\\Programs\\Python\\Python38\\lib\\asyncio\\exceptions.py',
   'PYMODULE'),
  ('asyncio.format_helpers',
   'C:\\Users\\seong\\AppData\\Local\\Programs\\Python\\Python38\\lib\\asyncio\\format_helpers.py',
   'PYMODULE'),
  ('asyncio.constants',
   'C:\\Users\\seong\\AppData\\Local\\Programs\\Python\\Python38\\lib\\asyncio\\constants.py',
   'PYMODULE'),
  ('unittest.result',
   'C:\\Users\\seong\\AppData\\Local\\Programs\\Python\\Python38\\lib\\unittest\\result.py',
   'PYMODULE'),
  ('unittest.util',
   'C:\\Users\\seong\\AppData\\Local\\Programs\\Python\\Python38\\lib\\unittest\\util.py',
   'PYMODULE'),
  ('pdb',
   'C:\\Users\\seong\\AppData\\Local\\Programs\\Python\\Python38\\lib\\pdb.py',
   'PYMODULE'),
  ('pydoc',
   'C:\\Users\\seong\\AppData\\Local\\Programs\\Python\\Python38\\lib\\pydoc.py',
   'PYMODULE'),
  ('webbrowser',
   'C:\\Users\\seong\\AppData\\Local\\Programs\\Python\\Python38\\lib\\webbrowser.py',
   'PYMODULE'),
  ('http.server',
   'C:\\Users\\seong\\AppData\\Local\\Programs\\Python\\Python38\\lib\\http\\server.py',
   'PYMODULE'),
  ('socketserver',
   'C:\\Users\\seong\\AppData\\Local\\Programs\\Python\\Python38\\lib\\socketserver.py',
   'PYMODULE'),
  ('html',
   'C:\\Users\\seong\\AppData\\Local\\Programs\\Python\\Python38\\lib\\html\\__init__.py',
   'PYMODULE'),
  ('html.entities',
   'C:\\Users\\seong\\AppData\\Local\\Programs\\Python\\Python38\\lib\\html\\entities.py',
   'PYMODULE'),
  ('pydoc_data.topics',
   'C:\\Users\\seong\\AppData\\Local\\Programs\\Python\\Python38\\lib\\pydoc_data\\topics.py',
   'PYMODULE'),
  ('pydoc_data',
   'C:\\Users\\seong\\AppData\\Local\\Programs\\Python\\Python38\\lib\\pydoc_data\\__init__.py',
   'PYMODULE'),
  ('tty',
   'C:\\Users\\seong\\AppData\\Local\\Programs\\Python\\Python38\\lib\\tty.py',
   'PYMODULE'),
  ('sysconfig',
   'C:\\Users\\seong\\AppData\\Local\\Programs\\Python\\Python38\\lib\\sysconfig.py',
   'PYMODULE'),
  ('_osx_support',
   'C:\\Users\\seong\\AppData\\Local\\Programs\\Python\\Python38\\lib\\_osx_support.py',
   'PYMODULE'),
  ('distutils.log',
   'C:\\Users\\seong\\AppData\\Local\\Programs\\Python\\Python38\\lib\\distutils\\log.py',
   'PYMODULE'),
  ('distutils',
   'C:\\Users\\seong\\AppData\\Local\\Programs\\Python\\Python38\\lib\\distutils\\__init__.py',
   'PYMODULE'),
  ('distutils.ccompiler',
   'C:\\Users\\seong\\AppData\\Local\\Programs\\Python\\Python38\\lib\\distutils\\ccompiler.py',
   'PYMODULE'),
  ('distutils.fancy_getopt',
   'C:\\Users\\seong\\AppData\\Local\\Programs\\Python\\Python38\\lib\\distutils\\fancy_getopt.py',
   'PYMODULE'),
  ('distutils.debug',
   'C:\\Users\\seong\\AppData\\Local\\Programs\\Python\\Python38\\lib\\distutils\\debug.py',
   'PYMODULE'),
  ('distutils.util',
   'C:\\Users\\seong\\AppData\\Local\\Programs\\Python\\Python38\\lib\\distutils\\util.py',
   'PYMODULE'),
  ('distutils.filelist',
   'C:\\Users\\seong\\AppData\\Local\\Programs\\Python\\Python38\\lib\\distutils\\filelist.py',
   'PYMODULE'),
  ('py_compile',
   'C:\\Users\\seong\\AppData\\Local\\Programs\\Python\\Python38\\lib\\py_compile.py',
   'PYMODULE'),
  ('distutils.dep_util',
   'C:\\Users\\seong\\AppData\\Local\\Programs\\Python\\Python38\\lib\\distutils\\dep_util.py',
   'PYMODULE'),
  ('distutils.dir_util',
   'C:\\Users\\seong\\AppData\\Local\\Programs\\Python\\Python38\\lib\\distutils\\dir_util.py',
   'PYMODULE'),
  ('distutils.file_util',
   'C:\\Users\\seong\\AppData\\Local\\Programs\\Python\\Python38\\lib\\distutils\\file_util.py',
   'PYMODULE'),
  ('distutils.spawn',
   'C:\\Users\\seong\\AppData\\Local\\Programs\\Python\\Python38\\lib\\distutils\\spawn.py',
   'PYMODULE'),
  ('distutils.errors',
   'C:\\Users\\seong\\AppData\\Local\\Programs\\Python\\Python38\\lib\\distutils\\errors.py',
   'PYMODULE'),
  ('distutils.sysconfig',
   'C:\\Users\\seong\\AppData\\Local\\Programs\\Python\\Python38\\lib\\distutils\\sysconfig.py',
   'PYMODULE'),
  ('distutils.text_file',
   'C:\\Users\\seong\\AppData\\Local\\Programs\\Python\\Python38\\lib\\distutils\\text_file.py',
   'PYMODULE'),
  ('platform',
   'C:\\Users\\seong\\AppData\\Local\\Programs\\Python\\Python38\\lib\\platform.py',
   'PYMODULE'),
  ('plistlib',
   'C:\\Users\\seong\\AppData\\Local\\Programs\\Python\\Python38\\lib\\plistlib.py',
   'PYMODULE'),
  ('pkgutil',
   'C:\\Users\\seong\\AppData\\Local\\Programs\\Python\\Python38\\lib\\pkgutil.py',
   'PYMODULE'),
  ('zipimport',
   'C:\\Users\\seong\\AppData\\Local\\Programs\\Python\\Python38\\lib\\zipimport.py',
   'PYMODULE'),
  ('pathlib',
   'C:\\Users\\seong\\AppData\\Local\\Programs\\Python\\Python38\\lib\\pathlib.py',
   'PYMODULE'),
  ('importlib.abc',
   'C:\\Users\\seong\\AppData\\Local\\Programs\\Python\\Python38\\lib\\importlib\\abc.py',
   'PYMODULE'),
  ('importlib',
   'C:\\Users\\seong\\AppData\\Local\\Programs\\Python\\Python38\\lib\\importlib\\__init__.py',
   'PYMODULE'),
  ('importlib.util',
   'C:\\Users\\seong\\AppData\\Local\\Programs\\Python\\Python38\\lib\\importlib\\util.py',
   'PYMODULE'),
  ('importlib.machinery',
   'C:\\Users\\seong\\AppData\\Local\\Programs\\Python\\Python38\\lib\\importlib\\machinery.py',
   'PYMODULE'),
  ('importlib._bootstrap_external',
   'C:\\Users\\seong\\AppData\\Local\\Programs\\Python\\Python38\\lib\\importlib\\_bootstrap_external.py',
   'PYMODULE'),
  ('importlib.metadata',
   'C:\\Users\\seong\\AppData\\Local\\Programs\\Python\\Python38\\lib\\importlib\\metadata.py',
   'PYMODULE'),
  ('configparser',
   'C:\\Users\\seong\\AppData\\Local\\Programs\\Python\\Python38\\lib\\configparser.py',
   'PYMODULE'),
  ('zipfile',
   'C:\\Users\\seong\\AppData\\Local\\Programs\\Python\\Python38\\lib\\zipfile.py',
   'PYMODULE'),
  ('lzma',
   'C:\\Users\\seong\\AppData\\Local\\Programs\\Python\\Python38\\lib\\lzma.py',
   'PYMODULE'),
  ('bz2',
   'C:\\Users\\seong\\AppData\\Local\\Programs\\Python\\Python38\\lib\\bz2.py',
   'PYMODULE'),
  ('csv',
   'C:\\Users\\seong\\AppData\\Local\\Programs\\Python\\Python38\\lib\\csv.py',
   'PYMODULE'),
  ('importlib._bootstrap',
   'C:\\Users\\seong\\AppData\\Local\\Programs\\Python\\Python38\\lib\\importlib\\_bootstrap.py',
   'PYMODULE'),
  ('runpy',
   'C:\\Users\\seong\\AppData\\Local\\Programs\\Python\\Python38\\lib\\runpy.py',
   'PYMODULE'),
  ('tokenize',
   'C:\\Users\\seong\\AppData\\Local\\Programs\\Python\\Python38\\lib\\tokenize.py',
   'PYMODULE'),
  ('token',
   'C:\\Users\\seong\\AppData\\Local\\Programs\\Python\\Python38\\lib\\token.py',
   'PYMODULE'),
  ('glob',
   'C:\\Users\\seong\\AppData\\Local\\Programs\\Python\\Python38\\lib\\glob.py',
   'PYMODULE'),
  ('code',
   'C:\\Users\\seong\\AppData\\Local\\Programs\\Python\\Python38\\lib\\code.py',
   'PYMODULE'),
  ('codeop',
   'C:\\Users\\seong\\AppData\\Local\\Programs\\Python\\Python38\\lib\\codeop.py',
   'PYMODULE'),
  ('dis',
   'C:\\Users\\seong\\AppData\\Local\\Programs\\Python\\Python38\\lib\\dis.py',
   'PYMODULE'),
  ('opcode',
   'C:\\Users\\seong\\AppData\\Local\\Programs\\Python\\Python38\\lib\\opcode.py',
   'PYMODULE'),
  ('bdb',
   'C:\\Users\\seong\\AppData\\Local\\Programs\\Python\\Python38\\lib\\bdb.py',
   'PYMODULE'),
  ('cmd',
   'C:\\Users\\seong\\AppData\\Local\\Programs\\Python\\Python38\\lib\\cmd.py',
   'PYMODULE'),
  ('inspect',
   'C:\\Users\\seong\\AppData\\Local\\Programs\\Python\\Python38\\lib\\inspect.py',
   'PYMODULE'),
  ('ast',
   'C:\\Users\\seong\\AppData\\Local\\Programs\\Python\\Python38\\lib\\ast.py',
   'PYMODULE'),
  ('difflib',
   'C:\\Users\\seong\\AppData\\Local\\Programs\\Python\\Python38\\lib\\difflib.py',
   'PYMODULE'),
  ('__future__',
   'C:\\Users\\seong\\AppData\\Local\\Programs\\Python\\Python38\\lib\\__future__.py',
   'PYMODULE'),
  ('_compat_pickle',
   'C:\\Users\\seong\\AppData\\Local\\Programs\\Python\\Python38\\lib\\_compat_pickle.py',
   'PYMODULE'),
  ('multiprocessing.process',
   'C:\\Users\\seong\\AppData\\Local\\Programs\\Python\\Python38\\lib\\multiprocessing\\process.py',
   'PYMODULE'),
  ('multiprocessing.context',
   'C:\\Users\\seong\\AppData\\Local\\Programs\\Python\\Python38\\lib\\multiprocessing\\context.py',
   'PYMODULE'),
  ('multiprocessing.popen_forkserver',
   'C:\\Users\\seong\\AppData\\Local\\Programs\\Python\\Python38\\lib\\multiprocessing\\popen_forkserver.py',
   'PYMODULE'),
  ('multiprocessing.sharedctypes',
   'C:\\Users\\seong\\AppData\\Local\\Programs\\Python\\Python38\\lib\\multiprocessing\\sharedctypes.py',
   'PYMODULE'),
  ('ctypes',
   'C:\\Users\\seong\\AppData\\Local\\Programs\\Python\\Python38\\lib\\ctypes\\__init__.py',
   'PYMODULE'),
  ('ctypes._endian',
   'C:\\Users\\seong\\AppData\\Local\\Programs\\Python\\Python38\\lib\\ctypes\\_endian.py',
   'PYMODULE'),
  ('multiprocessing.pool',
   'C:\\Users\\seong\\AppData\\Local\\Programs\\Python\\Python38\\lib\\multiprocessing\\pool.py',
   'PYMODULE'),
  ('multiprocessing.dummy',
   'C:\\Users\\seong\\AppData\\Local\\Programs\\Python\\Python38\\lib\\multiprocessing\\dummy\\__init__.py',
   'PYMODULE'),
  ('multiprocessing.dummy.connection',
   'C:\\Users\\seong\\AppData\\Local\\Programs\\Python\\Python38\\lib\\multiprocessing\\dummy\\connection.py',
   'PYMODULE'),
  ('multiprocessing.managers',
   'C:\\Users\\seong\\AppData\\Local\\Programs\\Python\\Python38\\lib\\multiprocessing\\managers.py',
   'PYMODULE'),
  ('multiprocessing.shared_memory',
   'C:\\Users\\seong\\AppData\\Local\\Programs\\Python\\Python38\\lib\\multiprocessing\\shared_memory.py',
   'PYMODULE'),
  ('secrets',
   'C:\\Users\\seong\\AppData\\Local\\Programs\\Python\\Python38\\lib\\secrets.py',
   'PYMODULE'),
  ('multiprocessing.reduction',
   'C:\\Users\\seong\\AppData\\Local\\Programs\\Python\\Python38\\lib\\multiprocessing\\reduction.py',
   'PYMODULE'),
  ('multiprocessing.popen_fork',
   'C:\\Users\\seong\\AppData\\Local\\Programs\\Python\\Python38\\lib\\multiprocessing\\popen_fork.py',
   'PYMODULE'),
  ('multiprocessing.popen_spawn_win32',
   'C:\\Users\\seong\\AppData\\Local\\Programs\\Python\\Python38\\lib\\multiprocessing\\popen_spawn_win32.py',
   'PYMODULE'),
  ('subprocess',
   'C:\\Users\\seong\\AppData\\Local\\Programs\\Python\\Python38\\lib\\subprocess.py',
   'PYMODULE'),
  ('multiprocessing.spawn',
   'C:\\Users\\seong\\AppData\\Local\\Programs\\Python\\Python38\\lib\\multiprocessing\\spawn.py',
   'PYMODULE'),
  ('multiprocessing',
   'C:\\Users\\seong\\AppData\\Local\\Programs\\Python\\Python38\\lib\\multiprocessing\\__init__.py',
   'PYMODULE'),
  ('tracemalloc',
   'C:\\Users\\seong\\AppData\\Local\\Programs\\Python\\Python38\\lib\\tracemalloc.py',
   'PYMODULE'),
  ('stringprep',
   'C:\\Users\\seong\\AppData\\Local\\Programs\\Python\\Python38\\lib\\stringprep.py',
   'PYMODULE'),
  ('_py_abc',
   'C:\\Users\\seong\\AppData\\Local\\Programs\\Python\\Python38\\lib\\_py_abc.py',
   'PYMODULE'),
  ('tkinter.messagebox',
   'C:\\Users\\seong\\AppData\\Local\\Programs\\Python\\Python38\\lib\\tkinter\\messagebox.py',
   'PYMODULE'),
  ('tkinter.commondialog',
   'C:\\Users\\seong\\AppData\\Local\\Programs\\Python\\Python38\\lib\\tkinter\\commondialog.py',
   'PYMODULE'),
  ('selenium.common.exceptions',
   'c:\\users\\seong\\web_crawling\\lib\\site-packages\\selenium\\common\\exceptions.py',
   'PYMODULE'),
  ('selenium.common',
   'c:\\users\\seong\\web_crawling\\lib\\site-packages\\selenium\\common\\__init__.py',
   'PYMODULE'),
  ('base64',
   'C:\\Users\\seong\\AppData\\Local\\Programs\\Python\\Python38\\lib\\base64.py',
   'PYMODULE'),
  ('shutil',
   'C:\\Users\\seong\\AppData\\Local\\Programs\\Python\\Python38\\lib\\shutil.py',
   'PYMODULE'),
  ('tarfile',
   'C:\\Users\\seong\\AppData\\Local\\Programs\\Python\\Python38\\lib\\tarfile.py',
   'PYMODULE'),
  ('tkinter.simpledialog',
   'C:\\Users\\seong\\AppData\\Local\\Programs\\Python\\Python38\\lib\\tkinter\\simpledialog.py',
   'PYMODULE'),
  ('tkinter',
   'C:\\Users\\seong\\AppData\\Local\\Programs\\Python\\Python38\\lib\\tkinter\\__init__.py',
   'PYMODULE'),
  ('tkinter.constants',
   'C:\\Users\\seong\\AppData\\Local\\Programs\\Python\\Python38\\lib\\tkinter\\constants.py',
   'PYMODULE'),
  ('os',
   'C:\\Users\\seong\\AppData\\Local\\Programs\\Python\\Python38\\lib\\os.py',
   'PYMODULE'),
  ('selenium.webdriver.common.action_chains',
   'c:\\users\\seong\\web_crawling\\lib\\site-packages\\selenium\\webdriver\\common\\action_chains.py',
   'PYMODULE'),
  ('selenium.webdriver.common',
   'c:\\users\\seong\\web_crawling\\lib\\site-packages\\selenium\\webdriver\\common\\__init__.py',
   'PYMODULE'),
  ('selenium.webdriver.common.service',
   'c:\\users\\seong\\web_crawling\\lib\\site-packages\\selenium\\webdriver\\common\\service.py',
   'PYMODULE'),
  ('selenium.webdriver.common.actions.action_builder',
   'c:\\users\\seong\\web_crawling\\lib\\site-packages\\selenium\\webdriver\\common\\actions\\action_builder.py',
   'PYMODULE'),
  ('selenium.webdriver.common.actions.pointer_input',
   'c:\\users\\seong\\web_crawling\\lib\\site-packages\\selenium\\webdriver\\common\\actions\\pointer_input.py',
   'PYMODULE'),
  ('selenium.webdriver.remote.webelement',
   'c:\\users\\seong\\web_crawling\\lib\\site-packages\\selenium\\webdriver\\remote\\webelement.py',
   'PYMODULE'),
  ('selenium.webdriver.remote',
   'c:\\users\\seong\\web_crawling\\lib\\site-packages\\selenium\\webdriver\\remote\\__init__.py',
   'PYMODULE'),
  ('selenium.webdriver.remote.utils',
   'c:\\users\\seong\\web_crawling\\lib\\site-packages\\selenium\\webdriver\\remote\\utils.py',
   'PYMODULE'),
  ('json',
   'C:\\Users\\seong\\AppData\\Local\\Programs\\Python\\Python38\\lib\\json\\__init__.py',
   'PYMODULE'),
  ('json.encoder',
   'C:\\Users\\seong\\AppData\\Local\\Programs\\Python\\Python38\\lib\\json\\encoder.py',
   'PYMODULE'),
  ('json.decoder',
   'C:\\Users\\seong\\AppData\\Local\\Programs\\Python\\Python38\\lib\\json\\decoder.py',
   'PYMODULE'),
  ('json.scanner',
   'C:\\Users\\seong\\AppData\\Local\\Programs\\Python\\Python38\\lib\\json\\scanner.py',
   'PYMODULE'),
  ('selenium.webdriver.common.by',
   'c:\\users\\seong\\web_crawling\\lib\\site-packages\\selenium\\webdriver\\common\\by.py',
   'PYMODULE'),
  ('selenium.webdriver.common.actions.input_device',
   'c:\\users\\seong\\web_crawling\\lib\\site-packages\\selenium\\webdriver\\common\\actions\\input_device.py',
   'PYMODULE'),
  ('uuid',
   'C:\\Users\\seong\\AppData\\Local\\Programs\\Python\\Python38\\lib\\uuid.py',
   'PYMODULE'),
  ('ctypes.util',
   'C:\\Users\\seong\\AppData\\Local\\Programs\\Python\\Python38\\lib\\ctypes\\util.py',
   'PYMODULE'),
  ('ctypes._aix',
   'C:\\Users\\seong\\AppData\\Local\\Programs\\Python\\Python38\\lib\\ctypes\\_aix.py',
   'PYMODULE'),
  ('ctypes.macholib.dyld',
   'C:\\Users\\seong\\AppData\\Local\\Programs\\Python\\Python38\\lib\\ctypes\\macholib\\dyld.py',
   'PYMODULE'),
  ('ctypes.macholib',
   'C:\\Users\\seong\\AppData\\Local\\Programs\\Python\\Python38\\lib\\ctypes\\macholib\\__init__.py',
   'PYMODULE'),
  ('ctypes.macholib.dylib',
   'C:\\Users\\seong\\AppData\\Local\\Programs\\Python\\Python38\\lib\\ctypes\\macholib\\dylib.py',
   'PYMODULE'),
  ('ctypes.macholib.framework',
   'C:\\Users\\seong\\AppData\\Local\\Programs\\Python\\Python38\\lib\\ctypes\\macholib\\framework.py',
   'PYMODULE'),
  ('selenium.webdriver.common.actions.pointer_actions',
   'c:\\users\\seong\\web_crawling\\lib\\site-packages\\selenium\\webdriver\\common\\actions\\pointer_actions.py',
   'PYMODULE'),
  ('selenium.webdriver.common.actions.mouse_button',
   'c:\\users\\seong\\web_crawling\\lib\\site-packages\\selenium\\webdriver\\common\\actions\\mouse_button.py',
   'PYMODULE'),
  ('selenium.webdriver.common.actions.key_input',
   'c:\\users\\seong\\web_crawling\\lib\\site-packages\\selenium\\webdriver\\common\\actions\\key_input.py',
   'PYMODULE'),
  ('selenium.webdriver.common.actions.key_actions',
   'c:\\users\\seong\\web_crawling\\lib\\site-packages\\selenium\\webdriver\\common\\actions\\key_actions.py',
   'PYMODULE'),
  ('selenium.webdriver.common.actions.interaction',
   'c:\\users\\seong\\web_crawling\\lib\\site-packages\\selenium\\webdriver\\common\\actions\\interaction.py',
   'PYMODULE'),
  ('selenium.webdriver.common.actions',
   'c:\\users\\seong\\web_crawling\\lib\\site-packages\\selenium\\webdriver\\common\\actions\\__init__.py',
   'PYMODULE'),
  ('selenium.webdriver.common.utils',
   'c:\\users\\seong\\web_crawling\\lib\\site-packages\\selenium\\webdriver\\common\\utils.py',
   'PYMODULE'),
  ('selenium.webdriver.remote.command',
   'c:\\users\\seong\\web_crawling\\lib\\site-packages\\selenium\\webdriver\\remote\\command.py',
   'PYMODULE'),
  ('selenium.webdriver.common.keys',
   'c:\\users\\seong\\web_crawling\\lib\\site-packages\\selenium\\webdriver\\common\\keys.py',
   'PYMODULE'),
  ('selenium.webdriver',
   'c:\\users\\seong\\web_crawling\\lib\\site-packages\\selenium\\webdriver\\__init__.py',
   'PYMODULE'),
  ('selenium.webdriver.common.proxy',
   'c:\\users\\seong\\web_crawling\\lib\\site-packages\\selenium\\webdriver\\common\\proxy.py',
   'PYMODULE'),
  ('selenium.webdriver.common.touch_actions',
   'c:\\users\\seong\\web_crawling\\lib\\site-packages\\selenium\\webdriver\\common\\touch_actions.py',
   'PYMODULE'),
  ('selenium.webdriver.common.desired_capabilities',
   'c:\\users\\seong\\web_crawling\\lib\\site-packages\\selenium\\webdriver\\common\\desired_capabilities.py',
   'PYMODULE'),
  ('selenium.webdriver.remote.webdriver',
   'c:\\users\\seong\\web_crawling\\lib\\site-packages\\selenium\\webdriver\\remote\\webdriver.py',
   'PYMODULE'),
  ('selenium.webdriver.common.html5.application_cache',
   'c:\\users\\seong\\web_crawling\\lib\\site-packages\\selenium\\webdriver\\common\\html5\\application_cache.py',
   'PYMODULE'),
  ('selenium.webdriver.common.html5',
   'c:\\users\\seong\\web_crawling\\lib\\site-packages\\selenium\\webdriver\\common\\html5\\__init__.py',
   'PYMODULE'),
  ('selenium.webdriver.remote.file_detector',
   'c:\\users\\seong\\web_crawling\\lib\\site-packages\\selenium\\webdriver\\remote\\file_detector.py',
   'PYMODULE'),
  ('selenium.webdriver.remote.mobile',
   'c:\\users\\seong\\web_crawling\\lib\\site-packages\\selenium\\webdriver\\remote\\mobile.py',
   'PYMODULE'),
  ('selenium.webdriver.remote.switch_to',
   'c:\\users\\seong\\web_crawling\\lib\\site-packages\\selenium\\webdriver\\remote\\switch_to.py',
   'PYMODULE'),
  ('selenium.webdriver.common.alert',
   'c:\\users\\seong\\web_crawling\\lib\\site-packages\\selenium\\webdriver\\common\\alert.py',
   'PYMODULE'),
  ('selenium.webdriver.remote.errorhandler',
   'c:\\users\\seong\\web_crawling\\lib\\site-packages\\selenium\\webdriver\\remote\\errorhandler.py',
   'PYMODULE'),
  ('selenium.webdriver.remote.remote_connection',
   'c:\\users\\seong\\web_crawling\\lib\\site-packages\\selenium\\webdriver\\remote\\remote_connection.py',
   'PYMODULE'),
  ('urllib3',
   'c:\\users\\seong\\web_crawling\\lib\\site-packages\\urllib3\\__init__.py',
   'PYMODULE'),
  ('urllib3.util.url',
   'c:\\users\\seong\\web_crawling\\lib\\site-packages\\urllib3\\util\\url.py',
   'PYMODULE'),
  ('urllib3.util',
   'c:\\users\\seong\\web_crawling\\lib\\site-packages\\urllib3\\util\\__init__.py',
   'PYMODULE'),
  ('urllib3.util.wait',
   'c:\\users\\seong\\web_crawling\\lib\\site-packages\\urllib3\\util\\wait.py',
   'PYMODULE'),
  ('urllib3.util.ssl_',
   'c:\\users\\seong\\web_crawling\\lib\\site-packages\\urllib3\\util\\ssl_.py',
   'PYMODULE'),
  ('urllib3.util.ssltransport',
   'c:\\users\\seong\\web_crawling\\lib\\site-packages\\urllib3\\util\\ssltransport.py',
   'PYMODULE'),
  ('urllib3.util.response',
   'c:\\users\\seong\\web_crawling\\lib\\site-packages\\urllib3\\util\\response.py',
   'PYMODULE'),
  ('urllib3.util.connection',
   'c:\\users\\seong\\web_crawling\\lib\\site-packages\\urllib3\\util\\connection.py',
   'PYMODULE'),
  ('urllib3.contrib._appengine_environ',
   'c:\\users\\seong\\web_crawling\\lib\\site-packages\\urllib3\\contrib\\_appengine_environ.py',
   'PYMODULE'),
  ('urllib3.contrib',
   'c:\\users\\seong\\web_crawling\\lib\\site-packages\\urllib3\\contrib\\__init__.py',
   'PYMODULE'),
  ('urllib3.contrib.pyopenssl',
   'c:\\users\\seong\\web_crawling\\lib\\site-packages\\urllib3\\contrib\\pyopenssl.py',
   'PYMODULE'),
  ('urllib3.packages.backports.makefile',
   'c:\\users\\seong\\web_crawling\\lib\\site-packages\\urllib3\\packages\\backports\\makefile.py',
   'PYMODULE'),
  ('urllib3.packages.backports',
   'c:\\users\\seong\\web_crawling\\lib\\site-packages\\urllib3\\packages\\backports\\__init__.py',
   'PYMODULE'),
  ('idna',
   'c:\\users\\seong\\web_crawling\\lib\\site-packages\\idna\\__init__.py',
   'PYMODULE'),
  ('idna.core',
   'c:\\users\\seong\\web_crawling\\lib\\site-packages\\idna\\core.py',
   'PYMODULE'),
  ('idna.uts46data',
   'c:\\users\\seong\\web_crawling\\lib\\site-packages\\idna\\uts46data.py',
   'PYMODULE'),
  ('idna.intranges',
   'c:\\users\\seong\\web_crawling\\lib\\site-packages\\idna\\intranges.py',
   'PYMODULE'),
  ('idna.idnadata',
   'c:\\users\\seong\\web_crawling\\lib\\site-packages\\idna\\idnadata.py',
   'PYMODULE'),
  ('idna.package_data',
   'c:\\users\\seong\\web_crawling\\lib\\site-packages\\idna\\package_data.py',
   'PYMODULE'),
  ('urllib3.packages.six',
   'c:\\users\\seong\\web_crawling\\lib\\site-packages\\urllib3\\packages\\six.py',
   'PYMODULE'),
  ('urllib3.packages',
   'c:\\users\\seong\\web_crawling\\lib\\site-packages\\urllib3\\packages\\__init__.py',
   'PYMODULE'),
  ('urllib3.packages.ssl_match_hostname',
   'c:\\users\\seong\\web_crawling\\lib\\site-packages\\urllib3\\packages\\ssl_match_hostname\\__init__.py',
   'PYMODULE'),
  ('urllib3.packages.ssl_match_hostname._implementation',
   'c:\\users\\seong\\web_crawling\\lib\\site-packages\\urllib3\\packages\\ssl_match_hostname\\_implementation.py',
   'PYMODULE'),
  ('ipaddress',
   'C:\\Users\\seong\\AppData\\Local\\Programs\\Python\\Python38\\lib\\ipaddress.py',
   'PYMODULE'),
  ('urllib3.util.timeout',
   'c:\\users\\seong\\web_crawling\\lib\\site-packages\\urllib3\\util\\timeout.py',
   'PYMODULE'),
  ('urllib3.util.retry',
   'c:\\users\\seong\\web_crawling\\lib\\site-packages\\urllib3\\util\\retry.py',
   'PYMODULE'),
  ('urllib3.util.request',
   'c:\\users\\seong\\web_crawling\\lib\\site-packages\\urllib3\\util\\request.py',
   'PYMODULE'),
  ('urllib3.response',
   'c:\\users\\seong\\web_crawling\\lib\\site-packages\\urllib3\\response.py',
   'PYMODULE'),
  ('urllib3.connection',
   'c:\\users\\seong\\web_crawling\\lib\\site-packages\\urllib3\\connection.py',
   'PYMODULE'),
  ('urllib3.util.proxy',
   'c:\\users\\seong\\web_crawling\\lib\\site-packages\\urllib3\\util\\proxy.py',
   'PYMODULE'),
  ('urllib3._collections',
   'c:\\users\\seong\\web_crawling\\lib\\site-packages\\urllib3\\_collections.py',
   'PYMODULE'),
  ('urllib3.poolmanager',
   'c:\\users\\seong\\web_crawling\\lib\\site-packages\\urllib3\\poolmanager.py',
   'PYMODULE'),
  ('urllib3.request',
   'c:\\users\\seong\\web_crawling\\lib\\site-packages\\urllib3\\request.py',
   'PYMODULE'),
  ('urllib3.filepost',
   'c:\\users\\seong\\web_crawling\\lib\\site-packages\\urllib3\\filepost.py',
   'PYMODULE'),
  ('urllib3.fields',
   'c:\\users\\seong\\web_crawling\\lib\\site-packages\\urllib3\\fields.py',
   'PYMODULE'),
  ('urllib3.connectionpool',
   'c:\\users\\seong\\web_crawling\\lib\\site-packages\\urllib3\\connectionpool.py',
   'PYMODULE'),
  ('urllib3.util.queue',
   'c:\\users\\seong\\web_crawling\\lib\\site-packages\\urllib3\\util\\queue.py',
   'PYMODULE'),
  ('urllib3._version',
   'c:\\users\\seong\\web_crawling\\lib\\site-packages\\urllib3\\_version.py',
   'PYMODULE'),
  ('urllib3.exceptions',
   'c:\\users\\seong\\web_crawling\\lib\\site-packages\\urllib3\\exceptions.py',
   'PYMODULE'),
  ('selenium.webdriver.webkitgtk.options',
   'c:\\users\\seong\\web_crawling\\lib\\site-packages\\selenium\\webdriver\\webkitgtk\\options.py',
   'PYMODULE'),
  ('selenium.webdriver.webkitgtk',
   'c:\\users\\seong\\web_crawling\\lib\\site-packages\\selenium\\webdriver\\webkitgtk\\__init__.py',
   'PYMODULE'),
  ('selenium.webdriver.webkitgtk.webdriver',
   'c:\\users\\seong\\web_crawling\\lib\\site-packages\\selenium\\webdriver\\webkitgtk\\webdriver.py',
   'PYMODULE'),
  ('selenium.webdriver.webkitgtk.service',
   'c:\\users\\seong\\web_crawling\\lib\\site-packages\\selenium\\webdriver\\webkitgtk\\service.py',
   'PYMODULE'),
  ('selenium.webdriver.android.webdriver',
   'c:\\users\\seong\\web_crawling\\lib\\site-packages\\selenium\\webdriver\\android\\webdriver.py',
   'PYMODULE'),
  ('selenium.webdriver.android',
   'c:\\users\\seong\\web_crawling\\lib\\site-packages\\selenium\\webdriver\\android\\__init__.py',
   'PYMODULE'),
  ('selenium.webdriver.phantomjs.webdriver',
   'c:\\users\\seong\\web_crawling\\lib\\site-packages\\selenium\\webdriver\\phantomjs\\webdriver.py',
   'PYMODULE'),
  ('selenium.webdriver.phantomjs',
   'c:\\users\\seong\\web_crawling\\lib\\site-packages\\selenium\\webdriver\\phantomjs\\__init__.py',
   'PYMODULE'),
  ('selenium.webdriver.phantomjs.service',
   'c:\\users\\seong\\web_crawling\\lib\\site-packages\\selenium\\webdriver\\phantomjs\\service.py',
   'PYMODULE'),
  ('selenium.webdriver.blackberry.webdriver',
   'c:\\users\\seong\\web_crawling\\lib\\site-packages\\selenium\\webdriver\\blackberry\\webdriver.py',
   'PYMODULE'),
  ('selenium.webdriver.blackberry',
   'c:\\users\\seong\\web_crawling\\lib\\site-packages\\selenium\\webdriver\\blackberry\\__init__.py',
   'PYMODULE'),
  ('selenium.webdriver.support.ui',
   'c:\\users\\seong\\web_crawling\\lib\\site-packages\\selenium\\webdriver\\support\\ui.py',
   'PYMODULE'),
  ('selenium.webdriver.support',
   'c:\\users\\seong\\web_crawling\\lib\\site-packages\\selenium\\webdriver\\support\\__init__.py',
   'PYMODULE'),
  ('selenium.webdriver.support.wait',
   'c:\\users\\seong\\web_crawling\\lib\\site-packages\\selenium\\webdriver\\support\\wait.py',
   'PYMODULE'),
  ('selenium.webdriver.support.select',
   'c:\\users\\seong\\web_crawling\\lib\\site-packages\\selenium\\webdriver\\support\\select.py',
   'PYMODULE'),
  ('selenium.webdriver.safari.webdriver',
   'c:\\users\\seong\\web_crawling\\lib\\site-packages\\selenium\\webdriver\\safari\\webdriver.py',
   'PYMODULE'),
  ('selenium.webdriver.safari',
   'c:\\users\\seong\\web_crawling\\lib\\site-packages\\selenium\\webdriver\\safari\\__init__.py',
   'PYMODULE'),
  ('selenium.webdriver.safari.remote_connection',
   'c:\\users\\seong\\web_crawling\\lib\\site-packages\\selenium\\webdriver\\safari\\remote_connection.py',
   'PYMODULE'),
  ('selenium.webdriver.safari.service',
   'c:\\users\\seong\\web_crawling\\lib\\site-packages\\selenium\\webdriver\\safari\\service.py',
   'PYMODULE'),
  ('selenium.webdriver.opera.webdriver',
   'c:\\users\\seong\\web_crawling\\lib\\site-packages\\selenium\\webdriver\\opera\\webdriver.py',
   'PYMODULE'),
  ('selenium.webdriver.opera',
   'c:\\users\\seong\\web_crawling\\lib\\site-packages\\selenium\\webdriver\\opera\\__init__.py',
   'PYMODULE'),
  ('selenium.webdriver.opera.options',
   'c:\\users\\seong\\web_crawling\\lib\\site-packages\\selenium\\webdriver\\opera\\options.py',
   'PYMODULE'),
  ('selenium.webdriver.edge.webdriver',
   'c:\\users\\seong\\web_crawling\\lib\\site-packages\\selenium\\webdriver\\edge\\webdriver.py',
   'PYMODULE'),
  ('selenium.webdriver.edge',
   'c:\\users\\seong\\web_crawling\\lib\\site-packages\\selenium\\webdriver\\edge\\__init__.py',
   'PYMODULE'),
  ('selenium.webdriver.edge.service',
   'c:\\users\\seong\\web_crawling\\lib\\site-packages\\selenium\\webdriver\\edge\\service.py',
   'PYMODULE'),
  ('selenium.webdriver.ie.options',
   'c:\\users\\seong\\web_crawling\\lib\\site-packages\\selenium\\webdriver\\ie\\options.py',
   'PYMODULE'),
  ('selenium.webdriver.ie',
   'c:\\users\\seong\\web_crawling\\lib\\site-packages\\selenium\\webdriver\\ie\\__init__.py',
   'PYMODULE'),
  ('selenium.webdriver.ie.webdriver',
   'c:\\users\\seong\\web_crawling\\lib\\site-packages\\selenium\\webdriver\\ie\\webdriver.py',
   'PYMODULE'),
  ('selenium.webdriver.ie.service',
   'c:\\users\\seong\\web_crawling\\lib\\site-packages\\selenium\\webdriver\\ie\\service.py',
   'PYMODULE'),
  ('selenium.webdriver.chrome.options',
   'c:\\users\\seong\\web_crawling\\lib\\site-packages\\selenium\\webdriver\\chrome\\options.py',
   'PYMODULE'),
  ('selenium.webdriver.chrome',
   'c:\\users\\seong\\web_crawling\\lib\\site-packages\\selenium\\webdriver\\chrome\\__init__.py',
   'PYMODULE'),
  ('selenium.webdriver.chrome.webdriver',
   'c:\\users\\seong\\web_crawling\\lib\\site-packages\\selenium\\webdriver\\chrome\\webdriver.py',
   'PYMODULE'),
  ('selenium.webdriver.chrome.service',
   'c:\\users\\seong\\web_crawling\\lib\\site-packages\\selenium\\webdriver\\chrome\\service.py',
   'PYMODULE'),
  ('selenium.webdriver.chrome.remote_connection',
   'c:\\users\\seong\\web_crawling\\lib\\site-packages\\selenium\\webdriver\\chrome\\remote_connection.py',
   'PYMODULE'),
  ('selenium.webdriver.firefox.options',
   'c:\\users\\seong\\web_crawling\\lib\\site-packages\\selenium\\webdriver\\firefox\\options.py',
   'PYMODULE'),
  ('selenium.webdriver.firefox',
   'c:\\users\\seong\\web_crawling\\lib\\site-packages\\selenium\\webdriver\\firefox\\__init__.py',
   'PYMODULE'),
  ('selenium.webdriver.firefox.firefox_binary',
   'c:\\users\\seong\\web_crawling\\lib\\site-packages\\selenium\\webdriver\\firefox\\firefox_binary.py',
   'PYMODULE'),
  ('selenium.webdriver.firefox.firefox_profile',
   'c:\\users\\seong\\web_crawling\\lib\\site-packages\\selenium\\webdriver\\firefox\\firefox_profile.py',
   'PYMODULE'),
  ('xml.dom.minidom',
   'C:\\Users\\seong\\AppData\\Local\\Programs\\Python\\Python38\\lib\\xml\\dom\\minidom.py',
   'PYMODULE'),
  ('xml.dom.pulldom',
   'C:\\Users\\seong\\AppData\\Local\\Programs\\Python\\Python38\\lib\\xml\\dom\\pulldom.py',
   'PYMODULE'),
  ('xml.dom.expatbuilder',
   'C:\\Users\\seong\\AppData\\Local\\Programs\\Python\\Python38\\lib\\xml\\dom\\expatbuilder.py',
   'PYMODULE'),
  ('xml.dom.NodeFilter',
   'C:\\Users\\seong\\AppData\\Local\\Programs\\Python\\Python38\\lib\\xml\\dom\\NodeFilter.py',
   'PYMODULE'),
  ('xml.dom.xmlbuilder',
   'C:\\Users\\seong\\AppData\\Local\\Programs\\Python\\Python38\\lib\\xml\\dom\\xmlbuilder.py',
   'PYMODULE'),
  ('xml.dom.minicompat',
   'C:\\Users\\seong\\AppData\\Local\\Programs\\Python\\Python38\\lib\\xml\\dom\\minicompat.py',
   'PYMODULE'),
  ('xml.dom.domreg',
   'C:\\Users\\seong\\AppData\\Local\\Programs\\Python\\Python38\\lib\\xml\\dom\\domreg.py',
   'PYMODULE'),
  ('xml.dom',
   'C:\\Users\\seong\\AppData\\Local\\Programs\\Python\\Python38\\lib\\xml\\dom\\__init__.py',
   'PYMODULE'),
  ('selenium.webdriver.firefox.webdriver',
   'c:\\users\\seong\\web_crawling\\lib\\site-packages\\selenium\\webdriver\\firefox\\webdriver.py',
   'PYMODULE'),
  ('selenium.webdriver.firefox.webelement',
   'c:\\users\\seong\\web_crawling\\lib\\site-packages\\selenium\\webdriver\\firefox\\webelement.py',
   'PYMODULE'),
  ('selenium.webdriver.firefox.service',
   'c:\\users\\seong\\web_crawling\\lib\\site-packages\\selenium\\webdriver\\firefox\\service.py',
   'PYMODULE'),
  ('selenium.webdriver.firefox.remote_connection',
   'c:\\users\\seong\\web_crawling\\lib\\site-packages\\selenium\\webdriver\\firefox\\remote_connection.py',
   'PYMODULE'),
  ('selenium.webdriver.firefox.extension_connection',
   'c:\\users\\seong\\web_crawling\\lib\\site-packages\\selenium\\webdriver\\firefox\\extension_connection.py',
   'PYMODULE'),
  ('selenium',
   'c:\\users\\seong\\web_crawling\\lib\\site-packages\\selenium\\__init__.py',
   'PYMODULE'),
  ('requests',
   'c:\\users\\seong\\web_crawling\\lib\\site-packages\\requests\\__init__.py',
   'PYMODULE'),
  ('requests.status_codes',
   'c:\\users\\seong\\web_crawling\\lib\\site-packages\\requests\\status_codes.py',
   'PYMODULE'),
  ('requests.structures',
   'c:\\users\\seong\\web_crawling\\lib\\site-packages\\requests\\structures.py',
   'PYMODULE'),
  ('requests.compat',
   'c:\\users\\seong\\web_crawling\\lib\\site-packages\\requests\\compat.py',
   'PYMODULE'),
  ('http.cookies',
   'C:\\Users\\seong\\AppData\\Local\\Programs\\Python\\Python38\\lib\\http\\cookies.py',
   'PYMODULE'),
  ('requests.api',
   'c:\\users\\seong\\web_crawling\\lib\\site-packages\\requests\\api.py',
   'PYMODULE'),
  ('requests.sessions',
   'c:\\users\\seong\\web_crawling\\lib\\site-packages\\requests\\sessions.py',
   'PYMODULE'),
  ('requests.adapters',
   'c:\\users\\seong\\web_crawling\\lib\\site-packages\\requests\\adapters.py',
   'PYMODULE'),
  ('urllib3.contrib.socks',
   'c:\\users\\seong\\web_crawling\\lib\\site-packages\\urllib3\\contrib\\socks.py',
   'PYMODULE'),
  ('requests._internal_utils',
   'c:\\users\\seong\\web_crawling\\lib\\site-packages\\requests\\_internal_utils.py',
   'PYMODULE'),
  ('requests.hooks',
   'c:\\users\\seong\\web_crawling\\lib\\site-packages\\requests\\hooks.py',
   'PYMODULE'),
  ('requests.cookies',
   'c:\\users\\seong\\web_crawling\\lib\\site-packages\\requests\\cookies.py',
   'PYMODULE'),
  ('dummy_threading',
   'C:\\Users\\seong\\AppData\\Local\\Programs\\Python\\Python38\\lib\\dummy_threading.py',
   'PYMODULE'),
  ('_dummy_thread',
   'C:\\Users\\seong\\AppData\\Local\\Programs\\Python\\Python38\\lib\\_dummy_thread.py',
   'PYMODULE'),
  ('requests.auth',
   'c:\\users\\seong\\web_crawling\\lib\\site-packages\\requests\\auth.py',
   'PYMODULE'),
  ('requests.models',
   'c:\\users\\seong\\web_crawling\\lib\\site-packages\\requests\\models.py',
   'PYMODULE'),
  ('requests.packages',
   'c:\\users\\seong\\web_crawling\\lib\\site-packages\\requests\\packages.py',
   'PYMODULE'),
  ('requests.utils',
   'c:\\users\\seong\\web_crawling\\lib\\site-packages\\requests\\utils.py',
   'PYMODULE'),
  ('requests.certs',
   'c:\\users\\seong\\web_crawling\\lib\\site-packages\\requests\\certs.py',
   'PYMODULE'),
  ('certifi',
   'c:\\users\\seong\\web_crawling\\lib\\site-packages\\certifi\\__init__.py',
   'PYMODULE'),
  ('certifi.core',
   'c:\\users\\seong\\web_crawling\\lib\\site-packages\\certifi\\core.py',
   'PYMODULE'),
  ('importlib.resources',
   'C:\\Users\\seong\\AppData\\Local\\Programs\\Python\\Python38\\lib\\importlib\\resources.py',
   'PYMODULE'),
  ('requests.__version__',
   'c:\\users\\seong\\web_crawling\\lib\\site-packages\\requests\\__version__.py',
   'PYMODULE'),
  ('requests.exceptions',
   'c:\\users\\seong\\web_crawling\\lib\\site-packages\\requests\\exceptions.py',
   'PYMODULE'),
  ('chardet',
   'c:\\users\\seong\\web_crawling\\lib\\site-packages\\chardet\\__init__.py',
   'PYMODULE'),
  ('chardet.version',
   'c:\\users\\seong\\web_crawling\\lib\\site-packages\\chardet\\version.py',
   'PYMODULE'),
  ('chardet.enums',
   'c:\\users\\seong\\web_crawling\\lib\\site-packages\\chardet\\enums.py',
   'PYMODULE'),
  ('chardet.universaldetector',
   'c:\\users\\seong\\web_crawling\\lib\\site-packages\\chardet\\universaldetector.py',
   'PYMODULE'),
  ('chardet.sbcsgroupprober',
   'c:\\users\\seong\\web_crawling\\lib\\site-packages\\chardet\\sbcsgroupprober.py',
   'PYMODULE'),
  ('chardet.sbcharsetprober',
   'c:\\users\\seong\\web_crawling\\lib\\site-packages\\chardet\\sbcharsetprober.py',
   'PYMODULE'),
  ('chardet.charsetprober',
   'c:\\users\\seong\\web_crawling\\lib\\site-packages\\chardet\\charsetprober.py',
   'PYMODULE'),
  ('chardet.langturkishmodel',
   'c:\\users\\seong\\web_crawling\\lib\\site-packages\\chardet\\langturkishmodel.py',
   'PYMODULE'),
  ('chardet.langthaimodel',
   'c:\\users\\seong\\web_crawling\\lib\\site-packages\\chardet\\langthaimodel.py',
   'PYMODULE'),
  ('chardet.langrussianmodel',
   'c:\\users\\seong\\web_crawling\\lib\\site-packages\\chardet\\langrussianmodel.py',
   'PYMODULE'),
  ('chardet.langhebrewmodel',
   'c:\\users\\seong\\web_crawling\\lib\\site-packages\\chardet\\langhebrewmodel.py',
   'PYMODULE'),
  ('chardet.langgreekmodel',
   'c:\\users\\seong\\web_crawling\\lib\\site-packages\\chardet\\langgreekmodel.py',
   'PYMODULE'),
  ('chardet.langbulgarianmodel',
   'c:\\users\\seong\\web_crawling\\lib\\site-packages\\chardet\\langbulgarianmodel.py',
   'PYMODULE'),
  ('chardet.hebrewprober',
   'c:\\users\\seong\\web_crawling\\lib\\site-packages\\chardet\\hebrewprober.py',
   'PYMODULE'),
  ('chardet.mbcsgroupprober',
   'c:\\users\\seong\\web_crawling\\lib\\site-packages\\chardet\\mbcsgroupprober.py',
   'PYMODULE'),
  ('chardet.euctwprober',
   'c:\\users\\seong\\web_crawling\\lib\\site-packages\\chardet\\euctwprober.py',
   'PYMODULE'),
  ('chardet.mbcssm',
   'c:\\users\\seong\\web_crawling\\lib\\site-packages\\chardet\\mbcssm.py',
   'PYMODULE'),
  ('chardet.chardistribution',
   'c:\\users\\seong\\web_crawling\\lib\\site-packages\\chardet\\chardistribution.py',
   'PYMODULE'),
  ('chardet.jisfreq',
   'c:\\users\\seong\\web_crawling\\lib\\site-packages\\chardet\\jisfreq.py',
   'PYMODULE'),
  ('chardet.big5freq',
   'c:\\users\\seong\\web_crawling\\lib\\site-packages\\chardet\\big5freq.py',
   'PYMODULE'),
  ('chardet.gb2312freq',
   'c:\\users\\seong\\web_crawling\\lib\\site-packages\\chardet\\gb2312freq.py',
   'PYMODULE'),
  ('chardet.euckrfreq',
   'c:\\users\\seong\\web_crawling\\lib\\site-packages\\chardet\\euckrfreq.py',
   'PYMODULE'),
  ('chardet.euctwfreq',
   'c:\\users\\seong\\web_crawling\\lib\\site-packages\\chardet\\euctwfreq.py',
   'PYMODULE'),
  ('chardet.codingstatemachine',
   'c:\\users\\seong\\web_crawling\\lib\\site-packages\\chardet\\codingstatemachine.py',
   'PYMODULE'),
  ('chardet.mbcharsetprober',
   'c:\\users\\seong\\web_crawling\\lib\\site-packages\\chardet\\mbcharsetprober.py',
   'PYMODULE'),
  ('chardet.big5prober',
   'c:\\users\\seong\\web_crawling\\lib\\site-packages\\chardet\\big5prober.py',
   'PYMODULE'),
  ('chardet.cp949prober',
   'c:\\users\\seong\\web_crawling\\lib\\site-packages\\chardet\\cp949prober.py',
   'PYMODULE'),
  ('chardet.euckrprober',
   'c:\\users\\seong\\web_crawling\\lib\\site-packages\\chardet\\euckrprober.py',
   'PYMODULE'),
  ('chardet.gb2312prober',
   'c:\\users\\seong\\web_crawling\\lib\\site-packages\\chardet\\gb2312prober.py',
   'PYMODULE'),
  ('chardet.eucjpprober',
   'c:\\users\\seong\\web_crawling\\lib\\site-packages\\chardet\\eucjpprober.py',
   'PYMODULE'),
  ('chardet.jpcntx',
   'c:\\users\\seong\\web_crawling\\lib\\site-packages\\chardet\\jpcntx.py',
   'PYMODULE'),
  ('chardet.sjisprober',
   'c:\\users\\seong\\web_crawling\\lib\\site-packages\\chardet\\sjisprober.py',
   'PYMODULE'),
  ('chardet.utf8prober',
   'c:\\users\\seong\\web_crawling\\lib\\site-packages\\chardet\\utf8prober.py',
   'PYMODULE'),
  ('chardet.latin1prober',
   'c:\\users\\seong\\web_crawling\\lib\\site-packages\\chardet\\latin1prober.py',
   'PYMODULE'),
  ('chardet.escprober',
   'c:\\users\\seong\\web_crawling\\lib\\site-packages\\chardet\\escprober.py',
   'PYMODULE'),
  ('chardet.escsm',
   'c:\\users\\seong\\web_crawling\\lib\\site-packages\\chardet\\escsm.py',
   'PYMODULE'),
  ('chardet.charsetgroupprober',
   'c:\\users\\seong\\web_crawling\\lib\\site-packages\\chardet\\charsetgroupprober.py',
   'PYMODULE')])
